Lab 5
…
dat <- dat %>%
  filter(!is.na(temp) & !is.na(wind.sp) & !is.na(atm.press))
medians_by_STATE <- dat %>%
  group_by(STATE) %>%
  summarise(
    median_temp = median(temp, na.rm = TRUE),
    median_wind = median(wind.sp, na.rm = TRUE),
    median_pressure = median(atm.press, na.rm = TRUE)
  )
(medians_by_STATE)

# A tibble: 46 × 4
   STATE median_temp median_wind median_pressure
   <chr>       <dbl>       <dbl>           <dbl>
 1 AL           25.6         1.5           1015.
 2 AR           26.1         2.1           1014.
 3 AZ           29.1         2.6           1011.
 4 CA           21.7         2.6           1013.
 5 CO           21.7         3.1           1014.
 6 CT           22.2         2.6           1015.
 7 DE           24.4         2.6           1015.
 8 FL           27.8         2.6           1015.
 9 GA           26.1         2.1           1015.
10 IA           21.1         2.6           1015.
# ℹ 36 more rows
…
